{
  "configVersion": 2,
  "packages": [
    {
      "name": "archive",
      "rootUri": "file:///Users/desarollo/Documents/flutter/.pub-cache/hosted/pub.dartlang.org/archive-2.0.13",
      "packageUri": "lib/",
      "languageVersion": "2.0"
    },
    {
      "name": "args",
      "rootUri": "file:///Users/desarollo/Documents/flutter/.pub-cache/hosted/pub.dartlang.org/args-1.6.0",
      "packageUri": "lib/",
      "languageVersion": "2.3"
    },
    {
      "name": "async",
      "rootUri": "file:///Users/desarollo/Documents/flutter/.pub-cache/hosted/pub.dartlang.org/async-2.4.1",
      "packageUri": "lib/",
      "languageVersion": "2.2"
    },
    {
      "name": "auto_orientation",
      "rootUri": "file:///Users/desarollo/Documents/flutter/.pub-cache/hosted/pub.dartlang.org/auto_orientation-0.0.2",
      "packageUri": "lib/",
      "languageVersion": "2.0"
    },
    {
      "name": "boolean_selector",
      "rootUri": "file:///Users/desarollo/Documents/flutter/.pub-cache/hosted/pub.dartlang.org/boolean_selector-2.0.0",
      "packageUri": "lib/",
      "languageVersion": "2.4"
    },
    {
      "name": "charcode",
      "rootUri": "file:///Users/desarollo/Documents/flutter/.pub-cache/hosted/pub.dartlang.org/charcode-1.1.3",
      "packageUri": "lib/",
      "languageVersion": "2.0"
    },
    {
      "name": "chewie",
      "rootUri": "../../",
      "packageUri": "lib/",
      "languageVersion": "2.0"
    },
    {
      "name": "collection",
      "rootUri": "file:///Users/desarollo/Documents/flutter/.pub-cache/hosted/pub.dartlang.org/collection-1.14.12",
      "packageUri": "lib/",
      "languageVersion": "2.0"
    },
    {
      "name": "convert",
      "rootUri": "file:///Users/desarollo/Documents/flutter/.pub-cache/hosted/pub.dartlang.org/convert-2.1.1",
      "packageUri": "lib/",
      "languageVersion": "1.17"
    },
    {
      "name": "crypto",
      "rootUri": "file:///Users/desarollo/Documents/flutter/.pub-cache/hosted/pub.dartlang.org/crypto-2.1.4",
      "packageUri": "lib/",
      "languageVersion": "2.1"
    },
    {
      "name": "cupertino_icons",
      "rootUri": "file:///Users/desarollo/Documents/flutter/.pub-cache/hosted/pub.dartlang.org/cupertino_icons-0.1.3",
      "packageUri": "lib/",
      "languageVersion": "2.0"
    },
    {
      "name": "flutter",
      "rootUri": "file:///Users/desarollo/Documents/flutter/packages/flutter",
      "packageUri": "lib/",
      "languageVersion": "2.2"
    },
    {
      "name": "flutter_test",
      "rootUri": "file:///Users/desarollo/Documents/flutter/packages/flutter_test",
      "packageUri": "lib/",
      "languageVersion": "2.2"
    },
    {
      "name": "image",
      "rootUri": "file:///Users/desarollo/Documents/flutter/.pub-cache/hosted/pub.dartlang.org/image-2.1.12",
      "packageUri": "lib/",
      "languageVersion": "2.0"
    },
    {
      "name": "matcher",
      "rootUri": "file:///Users/desarollo/Documents/flutter/.pub-cache/hosted/pub.dartlang.org/matcher-0.12.6",
      "packageUri": "lib/",
      "languageVersion": "2.2"
    },
    {
      "name": "meta",
      "rootUri": "file:///Users/desarollo/Documents/flutter/.pub-cache/hosted/pub.dartlang.org/meta-1.1.8",
      "packageUri": "lib/",
      "languageVersion": "1.12"
    },
    {
      "name": "open_iconic_flutter",
      "rootUri": "file:///Users/desarollo/Documents/flutter/.pub-cache/hosted/pub.dartlang.org/open_iconic_flutter-0.3.0",
      "packageUri": "lib/",
      "languageVersion": "2.0"
    },
    {
      "name": "path",
      "rootUri": "file:///Users/desarollo/Documents/flutter/.pub-cache/hosted/pub.dartlang.org/path-1.6.4",
      "packageUri": "lib/",
      "languageVersion": "2.0"
    },
    {
      "name": "petitparser",
      "rootUri": "file:///Users/desarollo/Documents/flutter/.pub-cache/hosted/pub.dartlang.org/petitparser-2.4.0",
      "packageUri": "lib/",
      "languageVersion": "2.4"
    },
    {
      "name": "quiver",
      "rootUri": "file:///Users/desarollo/Documents/flutter/.pub-cache/hosted/pub.dartlang.org/quiver-2.1.3",
      "packageUri": "lib/",
      "languageVersion": "2.0"
    },
    {
      "name": "screen",
      "rootUri": "file:///Users/desarollo/Documents/flutter/.pub-cache/hosted/pub.dartlang.org/screen-0.0.5",
      "packageUri": "lib/",
      "languageVersion": "2.0"
    },
    {
      "name": "sky_engine",
      "rootUri": "file:///Users/desarollo/Documents/flutter/bin/cache/pkg/sky_engine",
      "packageUri": "lib/",
      "languageVersion": "1.11"
    },
    {
      "name": "source_span",
      "rootUri": "file:///Users/desarollo/Documents/flutter/.pub-cache/hosted/pub.dartlang.org/source_span-1.7.0",
      "packageUri": "lib/",
      "languageVersion": "2.6"
    },
    {
      "name": "stack_trace",
      "rootUri": "file:///Users/desarollo/Documents/flutter/.pub-cache/hosted/pub.dartlang.org/stack_trace-1.9.3",
      "packageUri": "lib/",
      "languageVersion": "1.23"
    },
    {
      "name": "stream_channel",
      "rootUri": "file:///Users/desarollo/Documents/flutter/.pub-cache/hosted/pub.dartlang.org/stream_channel-2.0.0",
      "packageUri": "lib/",
      "languageVersion": "2.0"
    },
    {
      "name": "string_scanner",
      "rootUri": "file:///Users/desarollo/Documents/flutter/.pub-cache/hosted/pub.dartlang.org/string_scanner-1.0.5",
      "packageUri": "lib/",
      "languageVersion": "2.0"
    },
    {
      "name": "term_glyph",
      "rootUri": "file:///Users/desarollo/Documents/flutter/.pub-cache/hosted/pub.dartlang.org/term_glyph-1.1.0",
      "packageUri": "lib/",
      "languageVersion": "1.8"
    },
    {
      "name": "test_api",
      "rootUri": "file:///Users/desarollo/Documents/flutter/.pub-cache/hosted/pub.dartlang.org/test_api-0.2.15",
      "packageUri": "lib/",
      "languageVersion": "2.4"
    },
    {
      "name": "typed_data",
      "rootUri": "file:///Users/desarollo/Documents/flutter/.pub-cache/hosted/pub.dartlang.org/typed_data-1.1.6",
      "packageUri": "lib/",
      "languageVersion": "2.0"
    },
    {
      "name": "vector_math",
      "rootUri": "file:///Users/desarollo/Documents/flutter/.pub-cache/hosted/pub.dartlang.org/vector_math-2.0.8",
      "packageUri": "lib/",
      "languageVersion": "2.0"
    },
    {
      "name": "video_player",
      "rootUri": "file:///Users/desarollo/Documents/video-player",
      "packageUri": "lib/",
      "languageVersion": "2.0"
    },
    {
      "name": "xml",
      "rootUri": "file:///Users/desarollo/Documents/flutter/.pub-cache/hosted/pub.dartlang.org/xml-3.6.1",
      "packageUri": "lib/",
      "languageVersion": "2.6"
    },
    {
      "name": "chewie_example",
      "rootUri": "../",
      "packageUri": "lib/"
    }
  ],
  "generated": "2020-07-08T00:56:26.433202Z",
  "generator": "pub",
  "generatorVersion": "2.8.4"
}
